hw2/hw2_1/dump.vcd
$date
	Tue Feb 14 10:51:35 2017
$end
$version
	QuestaSim Version 10.4c
$end
$timescale
	1ns
$end

$scope module shifter_hier_bench $end
$var reg 16 ! In [15:0] $end
$var reg 4 " Cnt [3:0] $end
$var reg 2 # Op [1:0] $end
$var wire 1 $ Out [15] $end
$var wire 1 % Out [14] $end
$var wire 1 & Out [13] $end
$var wire 1 ' Out [12] $end
$var wire 1 ( Out [11] $end
$var wire 1 ) Out [10] $end
$var wire 1 * Out [9] $end
$var wire 1 + Out [8] $end
$var wire 1 , Out [7] $end
$var wire 1 - Out [6] $end
$var wire 1 . Out [5] $end
$var wire 1 / Out [4] $end
$var wire 1 0 Out [3] $end
$var wire 1 1 Out [2] $end
$var wire 1 2 Out [1] $end
$var wire 1 3 Out [0] $end
$var reg 1 4 fail $end
$var reg 32 5 Expected [31:0] $end
$var integer 32 6 idx $end

$scope module DUT $end
$var wire 1 7 In [15] $end
$var wire 1 8 In [14] $end
$var wire 1 9 In [13] $end
$var wire 1 : In [12] $end
$var wire 1 ; In [11] $end
$var wire 1 < In [10] $end
$var wire 1 = In [9] $end
$var wire 1 > In [8] $end
$var wire 1 ? In [7] $end
$var wire 1 @ In [6] $end
$var wire 1 A In [5] $end
$var wire 1 B In [4] $end
$var wire 1 C In [3] $end
$var wire 1 D In [2] $end
$var wire 1 E In [1] $end
$var wire 1 F In [0] $end
$var wire 1 G Cnt [3] $end
$var wire 1 H Cnt [2] $end
$var wire 1 I Cnt [1] $end
$var wire 1 J Cnt [0] $end
$var wire 1 K Op [1] $end
$var wire 1 L Op [0] $end
$var wire 1 $ Out [15] $end
$var wire 1 % Out [14] $end
$var wire 1 & Out [13] $end
$var wire 1 ' Out [12] $end
$var wire 1 ( Out [11] $end
$var wire 1 ) Out [10] $end
$var wire 1 * Out [9] $end
$var wire 1 + Out [8] $end
$var wire 1 , Out [7] $end
$var wire 1 - Out [6] $end
$var wire 1 . Out [5] $end
$var wire 1 / Out [4] $end
$var wire 1 0 Out [3] $end
$var wire 1 1 Out [2] $end
$var wire 1 2 Out [1] $end
$var wire 1 3 Out [0] $end
$var wire 1 M clk $end
$var wire 1 N rst $end
$var wire 1 O err $end

$scope module c0 $end
$var reg 1 P clk $end
$var reg 1 Q rst $end
$var wire 1 O err $end
$var integer 32 R cycle_count $end
$upscope $end

$scope module s0 $end
$var wire 1 7 In [15] $end
$var wire 1 8 In [14] $end
$var wire 1 9 In [13] $end
$var wire 1 : In [12] $end
$var wire 1 ; In [11] $end
$var wire 1 < In [10] $end
$var wire 1 = In [9] $end
$var wire 1 > In [8] $end
$var wire 1 ? In [7] $end
$var wire 1 @ In [6] $end
$var wire 1 A In [5] $end
$var wire 1 B In [4] $end
$var wire 1 C In [3] $end
$var wire 1 D In [2] $end
$var wire 1 E In [1] $end
$var wire 1 F In [0] $end
$var wire 1 G Cnt [3] $end
$var wire 1 H Cnt [2] $end
$var wire 1 I Cnt [1] $end
$var wire 1 J Cnt [0] $end
$var wire 1 K Op [1] $end
$var wire 1 L Op [0] $end
$var wire 1 $ Out [15] $end
$var wire 1 % Out [14] $end
$var wire 1 & Out [13] $end
$var wire 1 ' Out [12] $end
$var wire 1 ( Out [11] $end
$var wire 1 ) Out [10] $end
$var wire 1 * Out [9] $end
$var wire 1 + Out [8] $end
$var wire 1 , Out [7] $end
$var wire 1 - Out [6] $end
$var wire 1 . Out [5] $end
$var wire 1 / Out [4] $end
$var wire 1 0 Out [3] $end
$var wire 1 1 Out [2] $end
$var wire 1 2 Out [1] $end
$var wire 1 3 Out [0] $end
$var reg 16 S value [15:0] $end
$upscope $end
$upscope $end
$upscope $end
$enddefinitions $end
#0
$dumpvars
b11010100100100 !
b1 "
b1 #
04
bx 5
1P
1Q
b110101001001000 S
bx 6
b1 R
03
02
01
10
0/
0.
1-
0,
0+
1*
0)
1(
0'
1&
1%
0$
1M
1N
0O
1L
0K
1J
0I
0H
0G
0F
0E
1D
0C
0B
1A
0@
0?
1>
0=
1<
0;
1:
19
08
07
$end
#50
0P
0M
b110101001001000 5
#100
1P
1M
b101011001100011 !
b1101 "
b10 R
1H
1G
1F
1E
0D
1@
0>
1=
09
18
b110001100000000 S
b11000000000000 S
b110000000000000 S
00
0-
0*
0(
#150
0P
0M
b1010110011000110000000000000 5
#200
1P
1M
b1000010001100101 !
b10 "
b11 R
0J
1I
0H
0G
0E
1D
0=
0:
08
17
b1000010001100101 S
b1000110010100 S
11
1/
1,
1+
1'
0&
0%
#201
0Q
0N
#250
0P
0M
b100001000110010100 5
#300
1P
1M
b1100110100001101 !
b110 "
b100 R
1H
1C
0A
0@
1>
1;
18
b1100110100001101 S
b1101000011010000 S
b100001101000000 S
01
0/
1-
0,
1*
0'
1%
#350
0P
0M
b1100110100001101000000 5
#400
1P
1M
b101011111101101 !
b1100 "
b101 R
0I
1G
1A
1@
1?
1=
0;
1:
07
b1110110100000000 S
b1101000000000000 S
0-
0+
0*
1'
1$
#450
0P
0M
b101011111101101000000000000 5
#500
1P
1M
b10010011000110 !
b101 "
b10 #
b110 R
0L
1K
1J
0G
0F
1E
0C
0A
0>
0=
0:
19
08
b10010011000110 S
b1001001100 S
b100100110 S
12
11
1.
1+
0'
0%
0$
#550
0P
0M
b11111 6
b11110 6
b11101 6
b11100 6
b11011 6
b11010 6
b1011111101101000000000000 5
b11001 6
b11000 6
b11111101101000000000000 5
b10111 6
b10110 6
b1111101101000000000000 5
b10101 6
b111101101000000000000 5
b10100 6
b11101101000000000000 5
b10011 6
b1101101000000000000 5
b10010 6
b101101000000000000 5
b10001 6
b1101000000000000 5
b10000 6
b1111 6
b10010011000110 5
b100100110 5
#600
1P
1M
b1111011111100101 !
b111 "
b111 R
1I
1F
0E
1A
1>
1=
1:
18
17
b1111011111100101 S
b1111111101111110 S
b1111111111011111 S
b1111111111101111 S
13
10
1-
1,
1*
1)
1(
1'
1&
1%
1$
#650
0P
0M
b11111 6
b10000000000000000000000100100110 5
b11110 6
b11000000000000000000000100100110 5
b11101 6
b11100000000000000000000100100110 5
b11100 6
b11110000000000000000000100100110 5
b11011 6
b11111000000000000000000100100110 5
b11010 6
b11111100000000000000000100100110 5
b11001 6
b11111110000000000000000100100110 5
b11000 6
b11111111000000000000000100100110 5
b10111 6
b11111111100000000000000100100110 5
b10110 6
b11111111110000000000000100100110 5
b10101 6
b11111111111000000000000100100110 5
b10100 6
b11111111111100000000000100100110 5
b10011 6
b11111111111110000000000100100110 5
b10010 6
b11111111111111000000000100100110 5
b10001 6
b11111111111111100000000100100110 5
b10000 6
b11111111111111110000000100100110 5
b1111 6
b11111111111111111111011111100101 5
b11111111111111111111111111101111 5
#700
1P
1M
b1101101110001111 !
b10 "
b1000 R
0J
0H
1E
1C
0A
0@
0<
1;
09
b1101101110001111 S
b1111011011100011 S
01
00
0+
0(
#750
0P
0M
b11111 6
b11110 6
b11101 6
b11100 6
b11011 6
b11010 6
b11001 6
b11000 6
b10111 6
b10110 6
b10101 6
b10100 6
b10011 6
b10010 6
b10001 6
b10000 6
b1111 6
b11111111111111111101101110001111 5
b11111111111111111111011011100011 5
#800
1P
1M
b111101011101000 !
b101 "
b0 #
b1001 R
0K
1J
0I
1H
0F
0E
0D
1A
1@
0>
19
07
b111101011101000 S
b1010111010000111 S
b101110100001111 S
11
10
0.
0-
0,
1+
0*
1(
0&
0$
#850
0P
0M
b11110101110100001111 5
#900
1P
1M
b10100010111101 !
b1101 "
b1 #
b1010 R
1L
1G
1F
1D
1B
0@
0=
0:
08
b1011110100000000 S
b1101000000000000 S
b1010000000000000 S
03
02
01
00
0+
0)
0(
0'
1&
0%
1$
#950
0P
0M
b101000101111010000000000000 5
#1000
1P
1M
b110001001100011 !
b1010 "
b0 #
b1011 R
0L
0J
1I
0H
1E
0D
0C
0B
1@
0?
1=
0;
18
b110001101100010 S
b1000110110001001 S
13
10
1,
1+
1)
1(
0&
#1050
0P
0M
b1100010011000110110001001 5
#1100
1P
1M
b10000100100000 !
b1 #
b1100 R
1L
0F
0E
0@
1>
0=
08
b10000000000000 S
b1000000000000000 S
03
00
0,
0+
0)
0(
#1150
0P
0M
b100001001000000000000000 5
#1200
1P
1M
b11111010010110 !
b11 "
b1101 R
1J
0G
1E
1D
1B
0A
1?
0>
1=
1<
1;
1:
b11111010010110 S
b1111101001011000 S
b1111010010110000 S
1/
1.
1,
1)
1'
1&
1%
#1250
0P
0M
b11111010010110000 5
#1300
1P
1M
b1101011001010011 !
b1011 "
b1110 R
1G
1F
0D
1@
0?
0;
09
18
17
b101001100000000 S
b100110000000000 S
b1001100000000000 S
0/
0.
0,
0)
1(
0&
0%
#1350
0P
0M
b110101100101001100000000000 5
#1400
1P
1M
b100101000000010 !
b1110 "
b1111 R
0J
1H
0F
0B
0@
0<
1;
0:
07
b1000000000 S
b10000000000000 S
b1000000000000000 S
0(
0'
#1450
0P
0M
b10010100000001000000000000000 5
#1500
1P
1M
b111001011001111 !
b11 "
b10 #
b10000 R
0L
1K
1J
0H
0G
1F
1D
1C
1@
1?
0;
1:
19
b111001011001111 S
b1110010110011 S
b111001011001 S
13
10
1/
1-
1*
1)
1(
0$
#1550
0P
0M
b11111 6
b11110 6
b11101 6
b11100 6
b10100000001000000000000000 5
b11011 6
b11010 6
b11001 6
b100000001000000000000000 5
b11000 6
b10111 6
b1000000000000000 5
b10110 6
b10101 6
b10100 6
b10011 6
b10010 6
b10001 6
b10000 6
b1111 6
b111001011001111 5
b111001011001 5
#1600
1P
1M
b101011001010 !
b1100 "
b10001 R
0J
0I
1H
1G
0F
0D
1;
0:
09
08
b1010 S
b0 S
03
00
0/
0-
0*
0)
0(
#1650
0P
0M
b11111 6
b11110 6
b11101 6
b11100 6
b11011 6
b11010 6
b11001 6
b11000 6
b10111 6
b10110 6
b10101 6
b10100 6
b10011 6
b10010 6
b10001 6
b10000 6
b1111 6
b101011001010 5
b0 5
#1700
1P
1M
b110000110001010 !
b1 "
b0 #
b10010 R
0K
1J
0H
0G
0@
1>
0=
0;
19
18
b110000110001010 S
b1100001100010100 S
11
1/
1+
1*
1%
1$
#1750
0P
0M
b1100001100010100 5
#1800
1P
1M
b1111001101111000 !
b1001 "
b11 #
b10011 R
1L
1K
1G
0E
1B
1A
1@
0?
1=
1:
17
b11110011 S
b1111001 S
13
01
10
1.
1-
0+
0*
0%
0$
#1850
0P
0M
b1111001 5
#1900
1P
1M
b110010110110110 !
b110 "
b10 #
b10100 R
0L
0J
1I
1H
0G
1E
1D
0C
0@
1?
0=
1<
0:
07
b110010110110110 S
b11001011011 S
b110010110 S
03
12
11
00
0.
0-
1,
1+
#1950
0P
0M
b11111 6
b11110 6
b11101 6
b11100 6
b11011 6
b11010 6
b11001 6
b11000 6
b10111 6
b10110 6
b10101 6
b10100 6
b10011 6
b10010 6
b10001 6
b10000 6
b1111 6
b110010110110110 5
b110010110 5
#2000
1P
1M
b1010111100 !
b1010 "
b11 #
b10101 R
1L
0H
1G
0E
1C
0>
1=
0<
09
08
b10 S
b0 S
02
01
0/
0,
0+
#2050
0P
0M
b0 5
#2100
1P
1M
b1011111001110001 !
b101 "
b10110 R
1J
0I
1H
0G
1F
0D
0C
1@
0?
1<
1;
1:
19
17
b1011111001110001 S
b101111100111 S
b10111110011 S
13
12
1/
1.
1-
1,
1+
1)
#2150
0P
0M
b10111110011 5
#2200
1P
1M
b110000000111011 !
b1010 "
b10 #
b10111 R
0L
0J
1I
0H
1G
1E
1C
0@
0=
0<
0;
0:
18
07
b1100000 S
b11000 S
03
02
10
0.
0-
0,
0+
0)
#2250
0P
0M
b11111 6
b11110 6
b11101 6
b11100 6
b11011 6
b11010 6
b11001 6
b11000 6
b10111 6
b10110 6
b10101 6
b10100 6
b10011 6
b10010 6
b10001 6
b10000 6
b1111 6
b110000000111011 5
b11000 5
#2300
1P
1M
b100101100010101 !
b1 "
b1 #
b11000 R
1L
0K
1J
0I
0G
0E
1D
0C
0A
1>
1=
1;
09
b100101100010101 S
b1001011000101010 S
12
0/
1.
1*
1)
1'
1$
#2350
0P
0M
b1001011000101010 5
#2400
1P
1M
b11101100010 !
b1100 "
b11 #
b11001 R
1K
0J
1H
1G
0F
1E
0D
0B
1A
1@
1<
0;
08
b111 S
b0 S
02
00
0.
0*
0)
0'
0$
#2450
0P
0M
b0 5
#2500
1P
1M
b1010000110001111 !
b1000 "
b11010 R
0H
1F
1D
1C
0A
0@
1?
0=
0<
19
17
b10100001 S
13
1.
1,
#2550
0P
0M
b10100001 5
#2600
1P
1M
b101011010011111 !
b1100 "
b11011 R
1H
1B
0>
1=
1<
1:
09
18
07
b1010110 S
b101 S
11
0.
0,
#2650
0P
0M
b101 5
#2700
1P
1M
b11011110001001 !
b1001 "
b0 #
b11100 R
0L
0K
1J
0H
0E
0D
0B
1>
19
08
b1000100100110111 S
b1001001101111 S
12
10
1.
1-
1*
1'
#2750
0P
0M
b11011110001001001101111 5
#2800
1P
1M
b1100000011010111 !
b1 "
b10 #
b11101 R
1K
0G
1E
1D
0C
1B
1@
0>
0=
0<
0:
09
18
17
b1100000011010111 S
b1110000001101011 S
01
0*
0'
1&
1%
1$
#2850
0P
0M
b11111 6
b10000000011011110001001001101111 5
b11110 6
b11000000011011110001001001101111 5
b11101 6
b11100000011011110001001001101111 5
b11100 6
b11110000011011110001001001101111 5
b11011 6
b11111000011011110001001001101111 5
b11010 6
b11111100011011110001001001101111 5
b11001 6
b11111110011011110001001001101111 5
b11000 6
b11111111011011110001001001101111 5
b10111 6
b11111111111011110001001001101111 5
b10110 6
b10101 6
b10100 6
b11111111111111110001001001101111 5
b10011 6
b10010 6
b10001 6
b10000 6
b1111 6
b11111111111111111100000011010111 5
b11111111111111111110000001101011 5
#2900
1P
1M
b111111100001100 !
b10 "
b0 #
b11110 R
0K
0J
1I
0F
0E
1C
0B
0@
0?
1>
1=
1<
1;
1:
19
07
b111111100001100 S
b1111110000110001 S
02
00
1/
0-
1)
1(
1'
#2950
0P
0M
b11111110000110001 5
#3000
1P
1M
b101101001110111 !
b1101 "
b10 #
b11111 R
1K
1J
0I
1H
1G
1F
1E
0C
1B
1A
1@
0>
0<
09
b1011010 S
b101 S
b10 S
03
12
0/
0.
0)
0(
0'
0&
0%
0$
#3050
0P
0M
b11111 6
b11110 6
b11101 6
b11100 6
b11011 6
b11010 6
b11001 6
b11000 6
b10111 6
b10110 6
b10101 6
b10100 6
b10011 6
b10010 6
b10001 6
b10000 6
b1111110000110001 5
b1111 6
b101101001110111 5
b10 5
#3100
1P
1M
b1111110 !
b1 #
b100000 R
1L
0K
0F
1C
0=
0;
0:
08
b111111000000000 S
b1110000000000000 S
b1100000000000000 S
02
1%
1$
#3150
0P
0M
b11111100000000000000 5
#3200
1P
1M
b1000111100011111 !
b11 "
b100001 R
1I
0H
0G
1F
0A
0@
1>
1=
1<
1;
17
b1000111100011111 S
b11110001111100 S
b111100011111000 S
10
1/
1.
1-
1,
1(
1'
1&
0$
#3250
0P
0M
b1000111100011111000 5
#3300
1P
1M
b1000100001111000 !
b1011 "
b100010 R
1G
0F
0E
0D
1A
1@
0>
0=
0<
b111100000000000 S
b1110000000000000 S
b1100000000000000 S
00
0/
0.
0-
0,
0(
0'
0&
1$
#3350
0P
0M
b100010000111100000000000000 5
#3400
1P
1M
b1010111000111111 !
b1010 "
b0 #
b100011 R
0L
0J
1F
1E
1D
0@
1=
1<
19
b11111110101110 S
b1111111010111000 S
10
1/
1.
1,
1*
1)
1(
1'
1&
#3450
0P
0M
b10101110001111111010111000 5
#3500
1P
1M
b11100010000110 !
b1110 "
b100100 R
1H
0F
0C
0B
0A
1?
0=
0<
1:
07
b1000011000111000 S
b110001110001000 S
b1000111000100001 S
13
00
0/
0,
0'
0&
0%
#3550
0P
0M
b1110001000011000111000100001 5
#3600
1P
1M
b1001100111111010 !
b110 "
b11 #
b100101 R
1L
1K
0G
0D
1C
1B
1A
1@
1>
09
17
b1001100111111010 S
b100110011111 S
b1001100111 S
12
11
1-
0)
0(
0$
#3650
0P
0M
b1001100111 5
#3700
1P
1M
b1011010010100011 !
b1111 "
b100110 R
1J
1G
1F
0C
0B
0@
0>
1<
0;
19
b10110100 S
b1011 S
b10 S
b1 S
02
01
0.
0-
0*
#3750
0P
0M
b1 5
#3800
1P
1M
b101011001011111 !
b100 "
b100111 R
0J
0I
0G
1D
1C
1B
0A
1@
0?
1=
09
18
07
b101011001011111 S
b10101100101 S
11
1.
1-
1+
1)
#3850
0P
0M
b10101100101 5
#3900
1P
1M
b11011011001011 !
b110 "
b10 #
b101000 R
0L
1I
0D
0B
1?
19
08
b11011011001011 S
b1101101100 S
b11011011 S
12
01
10
1/
0.
1,
0+
0)
#3950
0P
0M
b11111 6
b11110 6
b11101 6
b11100 6
b11011 6
b11010 6
b11001 6
b11000 6
b10111 6
b10110 6
b10101 6
b10100 6
b10011 6
b10010 6
b10001 6
b10000 6
b1111 6
b11011011001011 5
b11011011 5
#4000
1P
1M
b1100000100101001 !
b1101 "
b101001 R
1J
0I
1G
0E
1A
0@
0?
1>
0=
0<
0:
09
18
17
b1111111111000001 S
b1111111111111100 S
b1111111111111110 S
03
11
1.
1+
1*
1)
1(
1'
1&
1%
1$
#4050
0P
0M
b11111 6
b10000000000000000000000011011011 5
b11110 6
b11000000000000000000000011011011 5
b11101 6
b11100000000000000000000011011011 5
b11100 6
b11110000000000000000000011011011 5
b11011 6
b11111000000000000000000011011011 5
b11010 6
b11111100000000000000000011011011 5
b11001 6
b11111110000000000000000011011011 5
b11000 6
b11111111000000000000000011011011 5
b10111 6
b11111111100000000000000011011011 5
b10110 6
b11111111110000000000000011011011 5
b10101 6
b11111111111000000000000011011011 5
b10100 6
b11111111111100000000000011011011 5
b10011 6
b11111111111110000000000011011011 5
b10010 6
b11111111111111000000000011011011 5
b10001 6
b11111111111111100000000011011011 5
b10000 6
b11111111111111110000000011011011 5
b1111 6
b11111111111111111100000100101001 5
b11111111111111111111111111111110 5
#4100
1P
1M
b1011011001100101 !
b101 "
b11 #
b101010 R
1L
0G
1D
0C
1@
0>
1=
1<
1:
19
08
b1011011001100101 S
b101101100110 S
b10110110011 S
13
01
00
0-
0*
0(
0'
0&
0%
0$
#4150
0P
0M
b10110110011 5
#4200
1P
1M
b1100101111001 !
b100 "
b0 #
b101011 R
0L
0K
0J
0D
1C
1B
1>
0=
0<
1;
09
07
b1100101111001 S
b1001011110010001 S
02
0.
1*
1'
1$
#4250
0P
0M
b11001011110010001 5
#4300
1P
1M
b101100101010 !
b1011 "
b10 #
b101100 R
1K
1J
1I
0H
1G
0F
1E
0B
0@
1=
0:
b1011 S
b10 S
b1 S
0/
0,
0+
0*
0)
0'
0$
#4350
0P
0M
b11111 6
b11110 6
b11101 6
b11100 6
b11011 6
b11010 6
b11001 6
b11000 6
b10111 6
b10110 6
b10101 6
b10100 6
b10011 6
b10010 6
b10001 6
b10000 6
b1001011110010001 5
b1111 6
b101100101010 5
b1 5
#4400
1P
1M
b1010110111011100 !
b1010 "
b1 #
b101101 R
1L
0K
0J
0E
1D
1B
0A
1@
1?
0=
1<
19
17
b1101110000000000 S
b111000000000000 S
03
1'
1&
1%
#4450
0P
0M
b10101101110111000000000000 5
#4500
1P
1M
b1011000011 !
b110 "
b10 #
b101110 R
0L
1K
1H
0G
1F
1E
0D
0C
0B
0>
1=
0<
0;
09
07
b1011000011 S
b101100 S
b1011 S
13
12
10
0'
0&
0%
#4550
0P
0M
b11111 6
b11110 6
b11101 6
b11100 6
b11011 6
b11010 6
b11001 6
b101101110111000000000000 5
b11000 6
b10111 6
b1101110111000000000000 5
b10110 6
b10101 6
b101110111000000000000 5
b10100 6
b1110111000000000000 5
b10011 6
b10010 6
b110111000000000000 5
b10001 6
b10111000000000000 5
b10000 6
b111000000000000 5
b1111 6
b1011000011 5
b1011 5
#4600
1P
1M
b111011001100111 !
b1010 "
b101111 R
0H
1G
1D
1A
0?
1<
1:
19
18
b1110110 S
b11101 S
02
11
1/
#4650
0P
0M
b11111 6
b11110 6
b11101 6
b11100 6
b11011 6
b11010 6
b11001 6
b11000 6
b10111 6
b10110 6
b10101 6
b10100 6
b10011 6
b10010 6
b10001 6
b10000 6
b1111 6
b111011001100111 5
b11101 5
#4700
1P
1M
b1000101000111000 !
b1001 "
b0 #
b110000 R
0K
1J
0I
0F
0E
0D
1C
1B
0@
0<
1;
0:
09
08
17
b11100010001010 S
b111000100010100 S
03
00
1+
1'
1&
1%
#4750
0P
0M
b1000101000111000100010100 5
#4800
1P
1M
b1011111110010100 !
b11 "
b110001 R
1I
0G
1D
0C
0A
1?
1>
1<
1:
19
b1011111110010100 S
b1111111001010010 S
b1111110010100101 S
13
0/
1.
1,
0+
1)
1(
1$
#4850
0P
0M
b1011111110010100101 5
#4900
1P
1M
b1100101001011001 !
b1011 "
b1 #
b110010 R
1L
1G
1F
0D
1C
1@
0?
0>
0<
0:
09
18
b101100100000000 S
b110010000000000 S
b1100100000000000 S
03
01
0.
0,
0)
0'
0&
#4950
0P
0M
b110010100101100100000000000 5
