hw1/hw1_1/dump.vcd
$date
	Wed Feb  1 23:40:31 2017
$end
$version
	QuestaSim Version 10.4c
$end
$timescale
	1ns
$end

$scope module quadmux4_1_bench $end
$var reg 4 ! InA [3:0] $end
$var reg 4 " InB [3:0] $end
$var reg 4 # InC [3:0] $end
$var reg 4 $ InD [3:0] $end
$var reg 2 % S [1:0] $end
$var wire 1 & Out [3] $end
$var wire 1 ' Out [2] $end
$var wire 1 ( Out [1] $end
$var wire 1 ) Out [0] $end
$var wire 1 * Clk $end
$var wire 1 + rst $end
$var wire 1 , err $end

$scope module my_clkrst $end
$var reg 1 - clk $end
$var reg 1 . rst $end
$var wire 1 , err $end
$var integer 32 / cycle_count $end
$upscope $end

$scope module DUT $end
$var wire 1 0 InA [3] $end
$var wire 1 1 InA [2] $end
$var wire 1 2 InA [1] $end
$var wire 1 3 InA [0] $end
$var wire 1 4 InB [3] $end
$var wire 1 5 InB [2] $end
$var wire 1 6 InB [1] $end
$var wire 1 7 InB [0] $end
$var wire 1 8 InC [3] $end
$var wire 1 9 InC [2] $end
$var wire 1 : InC [1] $end
$var wire 1 ; InC [0] $end
$var wire 1 < InD [3] $end
$var wire 1 = InD [2] $end
$var wire 1 > InD [1] $end
$var wire 1 ? InD [0] $end
$var wire 1 @ S [1] $end
$var wire 1 A S [0] $end
$var wire 1 & Out [3] $end
$var wire 1 ' Out [2] $end
$var wire 1 ( Out [1] $end
$var wire 1 ) Out [0] $end

$scope module a1[3] $end
$var wire 1 0 lnA $end
$var wire 1 4 lnB $end
$var wire 1 8 lnC $end
$var wire 1 < lnD $end
$var wire 1 @ S [1] $end
$var wire 1 A S [0] $end
$var wire 1 & Out $end
$var wire 1 B w1 $end
$var wire 1 C w2 $end
$var wire 1 D w3 $end

$scope module b1 $end
$var wire 1 0 lnA $end
$var wire 1 4 lnB $end
$var wire 1 A S $end
$var wire 1 B Out $end
$var wire 1 E w1 $end
$var wire 1 F w2 $end
$var wire 1 G w3 $end

$scope module c1 $end
$var wire 1 A in1 $end
$var wire 1 E out $end
$upscope $end

$scope module c2 $end
$var wire 1 0 in1 $end
$var wire 1 E in2 $end
$var wire 1 F out $end
$upscope $end

$scope module c3 $end
$var wire 1 4 in1 $end
$var wire 1 A in2 $end
$var wire 1 G out $end
$upscope $end

$scope module c4 $end
$var wire 1 F in1 $end
$var wire 1 G in2 $end
$var wire 1 B out $end
$upscope $end
$upscope $end

$scope module b2 $end
$var wire 1 8 lnA $end
$var wire 1 < lnB $end
$var wire 1 A S $end
$var wire 1 C Out $end
$var wire 1 H w1 $end
$var wire 1 I w2 $end
$var wire 1 J w3 $end

$scope module c1 $end
$var wire 1 A in1 $end
$var wire 1 H out $end
$upscope $end

$scope module c2 $end
$var wire 1 8 in1 $end
$var wire 1 H in2 $end
$var wire 1 I out $end
$upscope $end

$scope module c3 $end
$var wire 1 < in1 $end
$var wire 1 A in2 $end
$var wire 1 J out $end
$upscope $end

$scope module c4 $end
$var wire 1 I in1 $end
$var wire 1 J in2 $end
$var wire 1 C out $end
$upscope $end
$upscope $end

$scope module b3 $end
$var wire 1 B lnA $end
$var wire 1 C lnB $end
$var wire 1 @ S $end
$var wire 1 & Out $end
$var wire 1 K w1 $end
$var wire 1 L w2 $end
$var wire 1 M w3 $end

$scope module c1 $end
$var wire 1 @ in1 $end
$var wire 1 K out $end
$upscope $end

$scope module c2 $end
$var wire 1 B in1 $end
$var wire 1 K in2 $end
$var wire 1 L out $end
$upscope $end

$scope module c3 $end
$var wire 1 C in1 $end
$var wire 1 @ in2 $end
$var wire 1 M out $end
$upscope $end

$scope module c4 $end
$var wire 1 L in1 $end
$var wire 1 M in2 $end
$var wire 1 & out $end
$upscope $end
$upscope $end
$upscope $end

$scope module a1[2] $end
$var wire 1 1 lnA $end
$var wire 1 5 lnB $end
$var wire 1 9 lnC $end
$var wire 1 = lnD $end
$var wire 1 @ S [1] $end
$var wire 1 A S [0] $end
$var wire 1 ' Out $end
$var wire 1 N w1 $end
$var wire 1 O w2 $end
$var wire 1 P w3 $end

$scope module b1 $end
$var wire 1 1 lnA $end
$var wire 1 5 lnB $end
$var wire 1 A S $end
$var wire 1 N Out $end
$var wire 1 Q w1 $end
$var wire 1 R w2 $end
$var wire 1 S w3 $end

$scope module c1 $end
$var wire 1 A in1 $end
$var wire 1 Q out $end
$upscope $end

$scope module c2 $end
$var wire 1 1 in1 $end
$var wire 1 Q in2 $end
$var wire 1 R out $end
$upscope $end

$scope module c3 $end
$var wire 1 5 in1 $end
$var wire 1 A in2 $end
$var wire 1 S out $end
$upscope $end

$scope module c4 $end
$var wire 1 R in1 $end
$var wire 1 S in2 $end
$var wire 1 N out $end
$upscope $end
$upscope $end

$scope module b2 $end
$var wire 1 9 lnA $end
$var wire 1 = lnB $end
$var wire 1 A S $end
$var wire 1 O Out $end
$var wire 1 T w1 $end
$var wire 1 U w2 $end
$var wire 1 V w3 $end

$scope module c1 $end
$var wire 1 A in1 $end
$var wire 1 T out $end
$upscope $end

$scope module c2 $end
$var wire 1 9 in1 $end
$var wire 1 T in2 $end
$var wire 1 U out $end
$upscope $end

$scope module c3 $end
$var wire 1 = in1 $end
$var wire 1 A in2 $end
$var wire 1 V out $end
$upscope $end

$scope module c4 $end
$var wire 1 U in1 $end
$var wire 1 V in2 $end
$var wire 1 O out $end
$upscope $end
$upscope $end

$scope module b3 $end
$var wire 1 N lnA $end
$var wire 1 O lnB $end
$var wire 1 @ S $end
$var wire 1 ' Out $end
$var wire 1 W w1 $end
$var wire 1 X w2 $end
$var wire 1 Y w3 $end

$scope module c1 $end
$var wire 1 @ in1 $end
$var wire 1 W out $end
$upscope $end

$scope module c2 $end
$var wire 1 N in1 $end
$var wire 1 W in2 $end
$var wire 1 X out $end
$upscope $end

$scope module c3 $end
$var wire 1 O in1 $end
$var wire 1 @ in2 $end
$var wire 1 Y out $end
$upscope $end

$scope module c4 $end
$var wire 1 X in1 $end
$var wire 1 Y in2 $end
$var wire 1 ' out $end
$upscope $end
$upscope $end
$upscope $end

$scope module a1[1] $end
$var wire 1 2 lnA $end
$var wire 1 6 lnB $end
$var wire 1 : lnC $end
$var wire 1 > lnD $end
$var wire 1 @ S [1] $end
$var wire 1 A S [0] $end
$var wire 1 ( Out $end
$var wire 1 Z w1 $end
$var wire 1 [ w2 $end
$var wire 1 \ w3 $end

$scope module b1 $end
$var wire 1 2 lnA $end
$var wire 1 6 lnB $end
$var wire 1 A S $end
$var wire 1 Z Out $end
$var wire 1 ] w1 $end
$var wire 1 ^ w2 $end
$var wire 1 _ w3 $end

$scope module c1 $end
$var wire 1 A in1 $end
$var wire 1 ] out $end
$upscope $end

$scope module c2 $end
$var wire 1 2 in1 $end
$var wire 1 ] in2 $end
$var wire 1 ^ out $end
$upscope $end

$scope module c3 $end
$var wire 1 6 in1 $end
$var wire 1 A in2 $end
$var wire 1 _ out $end
$upscope $end

$scope module c4 $end
$var wire 1 ^ in1 $end
$var wire 1 _ in2 $end
$var wire 1 Z out $end
$upscope $end
$upscope $end

$scope module b2 $end
$var wire 1 : lnA $end
$var wire 1 > lnB $end
$var wire 1 A S $end
$var wire 1 [ Out $end
$var wire 1 ` w1 $end
$var wire 1 a w2 $end
$var wire 1 b w3 $end

$scope module c1 $end
$var wire 1 A in1 $end
$var wire 1 ` out $end
$upscope $end

$scope module c2 $end
$var wire 1 : in1 $end
$var wire 1 ` in2 $end
$var wire 1 a out $end
$upscope $end

$scope module c3 $end
$var wire 1 > in1 $end
$var wire 1 A in2 $end
$var wire 1 b out $end
$upscope $end

$scope module c4 $end
$var wire 1 a in1 $end
$var wire 1 b in2 $end
$var wire 1 [ out $end
$upscope $end
$upscope $end

$scope module b3 $end
$var wire 1 Z lnA $end
$var wire 1 [ lnB $end
$var wire 1 @ S $end
$var wire 1 ( Out $end
$var wire 1 c w1 $end
$var wire 1 d w2 $end
$var wire 1 e w3 $end

$scope module c1 $end
$var wire 1 @ in1 $end
$var wire 1 c out $end
$upscope $end

$scope module c2 $end
$var wire 1 Z in1 $end
$var wire 1 c in2 $end
$var wire 1 d out $end
$upscope $end

$scope module c3 $end
$var wire 1 [ in1 $end
$var wire 1 @ in2 $end
$var wire 1 e out $end
$upscope $end

$scope module c4 $end
$var wire 1 d in1 $end
$var wire 1 e in2 $end
$var wire 1 ( out $end
$upscope $end
$upscope $end
$upscope $end

$scope module a1[0] $end
$var wire 1 3 lnA $end
$var wire 1 7 lnB $end
$var wire 1 ; lnC $end
$var wire 1 ? lnD $end
$var wire 1 @ S [1] $end
$var wire 1 A S [0] $end
$var wire 1 ) Out $end
$var wire 1 f w1 $end
$var wire 1 g w2 $end
$var wire 1 h w3 $end

$scope module b1 $end
$var wire 1 3 lnA $end
$var wire 1 7 lnB $end
$var wire 1 A S $end
$var wire 1 f Out $end
$var wire 1 i w1 $end
$var wire 1 j w2 $end
$var wire 1 k w3 $end

$scope module c1 $end
$var wire 1 A in1 $end
$var wire 1 i out $end
$upscope $end

$scope module c2 $end
$var wire 1 3 in1 $end
$var wire 1 i in2 $end
$var wire 1 j out $end
$upscope $end

$scope module c3 $end
$var wire 1 7 in1 $end
$var wire 1 A in2 $end
$var wire 1 k out $end
$upscope $end

$scope module c4 $end
$var wire 1 j in1 $end
$var wire 1 k in2 $end
$var wire 1 f out $end
$upscope $end
$upscope $end

$scope module b2 $end
$var wire 1 ; lnA $end
$var wire 1 ? lnB $end
$var wire 1 A S $end
$var wire 1 g Out $end
$var wire 1 l w1 $end
$var wire 1 m w2 $end
$var wire 1 n w3 $end

$scope module c1 $end
$var wire 1 A in1 $end
$var wire 1 l out $end
$upscope $end

$scope module c2 $end
$var wire 1 ; in1 $end
$var wire 1 l in2 $end
$var wire 1 m out $end
$upscope $end

$scope module c3 $end
$var wire 1 ? in1 $end
$var wire 1 A in2 $end
$var wire 1 n out $end
$upscope $end

$scope module c4 $end
$var wire 1 m in1 $end
$var wire 1 n in2 $end
$var wire 1 g out $end
$upscope $end
$upscope $end

$scope module b3 $end
$var wire 1 f lnA $end
$var wire 1 g lnB $end
$var wire 1 @ S $end
$var wire 1 ) Out $end
$var wire 1 o w1 $end
$var wire 1 p w2 $end
$var wire 1 q w3 $end

$scope module c1 $end
$var wire 1 @ in1 $end
$var wire 1 o out $end
$upscope $end

$scope module c2 $end
$var wire 1 f in1 $end
$var wire 1 o in2 $end
$var wire 1 p out $end
$upscope $end

$scope module c3 $end
$var wire 1 g in1 $end
$var wire 1 @ in2 $end
$var wire 1 q out $end
$upscope $end

$scope module c4 $end
$var wire 1 p in1 $end
$var wire 1 q in2 $end
$var wire 1 ) out $end
$upscope $end
$upscope $end
$upscope $end
$upscope $end
$upscope $end
$enddefinitions $end
#0
$dumpvars
b100 !
b1 "
b1001 #
b11 $
b1 %
1-
1.
b1 /
1)
0(
0'
0&
1*
1+
z,
1f
1g
zh
0i
1j
0k
0l
1m
0n
1o
0p
1q
0Z
1[
z\
0]
1^
1_
0`
1a
0b
1c
1d
1e
0N
0O
zP
0Q
1R
1S
0T
1U
1V
1W
1X
1Y
0B
0C
zD
0E
1F
1G
0H
1I
1J
1K
1L
1M
1A
0@
1?
1>
0=
0<
1;
0:
09
18
17
06
05
04
03
02
11
00
$end
#50
0-
0*
#100
1-
1*
b1101 !
b101 "
b10 #
b1 $
b10 /
0>
0;
1:
08
15
13
10
0S
1b
0[
1N
0X
1'
#150
0-
0*
#200
1-
1*
b110 !
b1101 "
b1101 #
b1100 $
b11 /
0?
1=
1<
1;
0:
19
18
14
03
12
00
0G
0J
0V
1n
0g
1O
1C
1B
0L
1&
#201
0.
0+
#250
0-
0*
#300
1-
1*
b101 "
b1010 #
b101 $
b11 %
b100 /
1@
1?
0<
0;
1:
09
04
1G
1J
0n
0o
0c
0W
0Y
0K
0M
1L
1X
1p
1g
0C
0B
1M
0q
0&
#350
0-
0*
#400
1-
1*
b10 !
b1111 "
b10 #
b1110 $
b0 %
b101 /
0A
0@
0?
1>
1<
08
16
14
01
1o
1q
1c
1W
1Y
1K
1i
1k
1l
1n
1]
1`
1Q
1S
1T
1V
1E
1H
0O
0N
0a
0^
0g
0f
0'
0)
1Z
1[
0d
1(
#450
0-
0*
#500
1-
1*
b101 !
b1100 "
b1101 #
b1101 $
b1 %
b110 /
1A
1?
0>
1;
0:
19
18
07
06
13
02
11
0R
1^
0j
0I
0U
1a
0m
0n
0i
0l
0]
0`
0Q
0S
0T
0V
0E
0G
0H
0J
1I
1B
1U
1R
1m
1j
1g
0[
1O
1C
0Z
1N
0X
1d
0L
1&
0(
1'
#550
0-
0*
#600
1-
1*
b11 !
b1010 "
b0 #
b0 $
b10 %
b111 /
0A
1@
0?
0=
0<
0;
09
08
16
05
12
01
0o
0q
0c
0W
0Y
0K
0M
1i
1l
1n
1]
1`
1Q
1S
1T
1V
1E
1G
1H
1J
0C
0B
0O
0N
0^
0g
0j
1L
1X
1)
1f
1q
1Z
1Y
1M
0&
0'
0)
#650
0-
0*
#700
1-
1*
b1101 !
b110 "
b11 #
b1101 $
b11 %
b1000 /
1A
1?
1=
1<
1;
1:
15
04
02
11
10
0F
0R
1^
0S
0a
0m
0J
0V
0n
0i
0l
0]
0_
0`
0Q
0T
0E
0H
1F
1R
1a
1m
1j
1O
1C
1g
1N
0q
0M
0Y
0f
1'
1&
1)
#750
0-
0*
#800
1-
1*
b1011 !
b101 "
b10 #
b1110 $
b1 %
b1001 /
0@
0?
1>
0;
17
06
12
01
1_
0k
0b
1n
1o
1q
1c
1W
1Y
1K
1M
0&
0'
0X
0d
0)
0g
1[
1f
0Z
1d
0p
1'
1)
#850
0-
0*
#900
1-
1*
b1111 !
b11 "
b1010 #
b1010 $
b0 %
b1010 /
0A
0=
18
16
05
11
1i
1k
1l
1]
1`
1b
1Q
1S
1T
1V
1E
1H
1J
0C
0I
0F
0O
0N
0R
0[
0a
0^
0f
0j
1f
1Z
1[
1N
1B
1C
0L
0d
1(
1&
#950
0-
0*
#1000
1-
1*
b10 !
b1010 "
b1 #
b1000 $
b1011 /
0>
1;
0:
08
07
14
03
01
00
1F
1R
1j
1I
1a
0m
1g
0[
0C
0f
0N
0B
1L
1X
1p
0)
0'
0&
#1050
0-
0*
#1100
1-
1*
b1001 !
b1011 "
b110 #
b110 $
b10 %
b1100 /
1@
1>
1=
0<
0;
1:
19
17
13
02
10
0F
1^
0j
0U
0a
1m
0o
0q
0c
0W
0K
1d
1)
0g
1[
1O
1f
0Z
1B
0Y
0e
1q
0)
1'
#1150
0-
0*
#1200
1-
1*
b1100 !
b1010 "
b1011 #
b1 $
b1 %
b1101 /
1A
0@
1?
0>
0=
1;
09
18
07
03
11
0R
1j
0I
1U
0m
0n
1o
1c
1e
1W
1Y
1K
0i
0l
0]
0_
0`
0Q
0T
0E
0G
0H
1I
1F
1R
1a
1Z
1m
0L
0'
0(
0p
1g
0O
0f
1p
1&
0d
0[
1(
#1250
0-
0*
#1300
1-
1*
b1111 !
b1011 "
b1010 #
b1110 $
b1110 /
0?
1>
1=
1<
0;
17
13
12
0k
0J
0V
0b
1n
0g
1[
1O
1C
1f
0p
1)
#1350
0-
0*
#1400
1-
1*
b1 !
b1001 "
b10 #
b1100 $
b11 %
b1111 /
1@
0>
08
06
02
01
00
1_
1b
0o
0c
0e
0W
0Y
0K
0M
1L
1'
1d
1p
0[
0Z
1e
0)
0(
#1450
0-
0*
#1500
1-
1*
b1111 !
b1000 "
b111 #
b1111 $
b0 %
b10000 /
0A
0@
1?
1>
1;
19
07
12
11
10
1o
1c
1W
1Y
1K
1M
1i
1k
1l
1]
1`
1Q
1T
1V
1E
1G
1H
1J
0C
0B
0F
0O
0U
0R
0a
0^
0m
0f
0j
0&
0'
1f
1g
1Z
1[
1N
1O
1B
0L
0X
0d
0p
1)
1(
1'
1&
#1550
0-
0*
#1600
1-
1*
b1011 !
b1001 "
b1001 #
b0 $
b11 %
b10001 /
1A
1@
0?
0>
0=
0<
0:
09
18
17
01
1R
0k
0I
1U
1a
0o
0q
0c
0e
0W
0Y
0K
0i
0l
0]
0`
0Q
0T
0E
0G
0H
1I
1F
1^
1m
1j
1L
1X
1d
1p
0[
0O
0N
1Y
1e
0&
0g
0Z
1q
0(
0'
0)
#1650
0-
0*
#1700
1-
1*
b1 !
b110 "
b1100 #
b10 $
b0 %
b10010 /
0A
0@
1>
0;
19
07
16
15
04
02
00
1o
1c
1W
1K
1i
1k
1l
1]
1`
1Q
1T
1E
1G
1H
0I
0B
0U
0f
0j
1f
1O
1C
0p
1)
#1750
0-
0*
#1800
1-
1*
b111 !
b1101 "
b10 #
b1110 $
b1 %
b10011 /
1A
1=
1<
1:
09
08
17
06
14
12
11
0R
0^
0G
0k
1I
1U
0a
0J
0V
0i
0l
0]
0`
0b
0Q
0S
0T
0E
0H
1R
1a
1^
1j
1[
1B
1N
0X
0L
1&
1'
#1850
0-
0*
#1900
1-
1*
b1001 !
b1111 "
b11 #
b101 $
b0 %
b10100 /
0A
1?
0>
0<
1;
16
02
01
10
1i
1k
1l
1]
1`
1b
1Q
1S
1T
1V
1E
1G
1H
1J
0C
0B
0F
0O
0N
0[
0a
0m
0f
0j
1f
1g
1[
1X
1B
0'
#1950
0-
0*
#2000
1-
1*
b1011 !
b1001 "
b1111 #
b1010 $
b10101 /
0?
1>
0=
1<
19
18
06
05
12
0^
0I
0U
1O
1C
1Z
0d
1(
#2050
0-
0*
#2100
1-
1*
b110 !
b1110 "
b1100 #
b10 %
b10110 /
1@
0;
0:
07
16
15
03
11
00
1F
0R
1j
1a
1m
0o
0q
0c
0e
0W
0Y
0K
0M
1L
1'
1d
1p
0g
0[
0f
1N
0B
1e
1q
0)
0(
#2150
0-
0*
#2200
1-
1*
b11 !
b11 "
b1111 #
b11 $
b11 %
b10111 /
1A
1?
0<
1;
1:
17
05
04
13
01
1R
0j
0k
0a
0m
0n
0i
0l
0]
0_
0`
0b
0Q
0T
0E
0H
1I
1U
1a
1^
1m
1j
1g
1[
1f
0N
0e
0q
0O
0C
1M
1Y
1)
1(
0'
0&
#2250
0-
0*
#2300
1-
1*
b100 !
b111 "
b1011 #
b110 $
b10 %
b11000 /
0A
0?
1=
09
15
03
02
11
1i
1k
1l
1n
1]
1_
1`
1b
1Q
1T
1E
1H
0I
0R
0[
0a
0Z
0g
0m
0f
1g
1[
1N
1C
0M
1&
#2350
0-
0*
#2400
1-
1*
b1001 !
b1101 "
b1010 #
b101 $
b1 %
b11001 /
1A
0@
1?
0>
0;
06
14
13
01
10
0F
1R
0j
0G
1m
0n
1o
1q
1c
1e
1W
1K
1M
0i
0k
0l
0]
0`
0Q
0S
0T
0V
0E
0H
1I
1F
1O
1a
1j
0&
0X
0(
0)
1f
1B
0L
0p
1'
0[
0C
1)
1&
#2450
0-
0*
#2500
1-
1*
b1111 !
b1001 "
b100 #
b0 $
b10 %
b11010 /
0A
1@
0?
0=
0:
19
08
05
12
11
0o
0q
0c
0W
0Y
0K
1i
1k
1l
1n
1]
1`
1Q
1S
1T
1V
1E
1G
1H
0B
0F
0O
0U
0N
0R
0^
0g
0f
0j
1L
1X
1p
0&
1f
1q
1Z
1N
1O
1B
0)
#2550
0-
0*
#2600
1-
1*
b1011 !
b1110 "
b1100 #
b1010 $
b1 %
b11011 /
1A
0@
1>
1<
18
07
16
15
01
1R
0S
0_
0I
0J
0b
1o
1c
1W
1Y
1K
0i
0l
0]
0`
0Q
0T
0E
0G
0H
1I
1F
1U
1^
1j
0L
0'
0X
0d
0p
1[
1C
1)
1(
1'
1&
0f
0O
1p
0)
#2650
0-
0*
#2700
1-
1*
b11 !
b110 "
b1110 #
b111 $
b10 %
b11100 /
0A
1@
1?
1=
0<
1:
04
00
0o
0c
0e
0W
0K
0M
1i
1l
1]
1_
1`
1b
1Q
1S
1T
1E
1G
1H
1J
0C
0I
0B
0U
0N
0[
0a
0Z
0^
0j
1L
1X
1d
0'
1f
1Z
1[
1O
1C
0Y
1'
#2750
0-
0*
#2800
1-
1*
b110 !
b1000 "
b1001 #
b1000 $
b0 %
b11101 /
0@
0?
0>
0=
1<
1;
0:
09
06
05
14
03
11
0R
1j
1U
1a
0m
1o
1c
1e
1W
1Y
1K
1M
0&
0'
0(
0d
0p
1g
0[
0O
0f
1N
0X
1p
1(
1'
#2850
0-
0*
#2900
1-
1*
b11 !
b100 "
b1011 $
b1 %
b11110 /
1A
1?
1>
15
04
13
01
1R
0j
0S
0b
0n
0i
0l
0]
0`
0Q
0T
0E
0H
0J
1I
1^
1m
1j
1[
0Z
1d
0(
#2950
0-
0*
#3000
1-
1*
b1001 !
b1101 "
b110 #
b1010 $
b10 %
b11111 /
0A
1@
0?
0;
1:
19
08
17
14
02
10
0o
0q
0c
0e
0W
0K
0M
1i
1l
1n
1]
1`
1b
1Q
1S
1T
1E
1H
1J
0C
0F
0U
0N
0[
0a
0g
0j
1&
1X
1(
1)
0'
1f
1q
1[
1O
1B
1M
0&
0Y
0)
1'
#3050
0-
0*
#3100
1-
1*
b101 !
b110 "
b100 #
b111 $
b1 %
b100000 /
1A
0@
1?
1=
0<
0:
07
16
04
11
00
1F
0R
0_
1a
0V
0n
1o
1c
1e
1W
1Y
1K
0i
0l
0]
0`
0b
0Q
0S
0T
0E
0H
1U
1R
1j
0L
0'
0(
0p
1g
1Z
1N
0B
1L
0X
0d
1)
0f
1p
1(
1'
0)
